State ,Buhari ,Atiku ,Sowore ,Moghalu ,Durotoye ,Duke ,Mailafia,Total
Abia ,85058,219698,212,88,720,472,336,306584
Adamawa ,378078,410266,282,109,162,978,3989,793864
Akwa Ibom ,175429,395832,222,118,95,92,230,572018
Anambra ,33298,524738,124,4091,45,932,227,563455
Bauchi ,798428,209313,183,112,46,516,296,1008894
Bayelsa ,118821,197933,126,50,37,124,1078,318169
Benue ,347668,356817,309,557,201,4927,554,711033
Borno ,836496,71788,269,78,29,322,301,909283
Cross River ,117302,295737,242,217,88,1395,326,415307
Delta ,221292,594068,1626,497,320,1745,1075,820623
Ebonyi ,90726,258573,205,192,683,452,213,351044
Edo ,267842,275691,3106,531,273,184,850,548477
Ekiti ,219231,154032,400,68,88,48,406,374273
Enugu ,54423,355553,219,1379,141,130,348,412193
Gombe ,402961,138484,165,39,78,248,248,542223
Imo ,140463,334923,467,676,119,772,541,477961
Jigawa ,794738,289895,226,67,66,5011,261,1090264
Kaduna ,993445,649612,243,196,261,1737,558,1646052
Kano ,1464768,391593,416,200,114,635,591,1858317
Katsina ,1232133,308056,186,61,82,150,237,1540905
Kebbi ,581552,154282,276,53,99,2376,285,738923
Kogi ,285894,218207,250,87,89,2226,4369,511122
Kwara ,308984,138184,401,140,422,212,456,448799
Lagos ,580825,448015,8910,5733,6946,770,2915,1054114
Nassarawa ,289903,283847,75,44,45,359,339,574612
Niger ,612371,218052,324,113,145,239,588,831832
Ogun ,281762,194655,3196,553,1509,1374,25283,508332
Ondo ,241769,275901,4414,1224,311,1618,6296,531533
Osun ,347634,337377,1022,189,268,259,1525,688274
Oyo ,365229,366690,4014,1608,1896,766,40830,781033
Plateau ,468555,548665,268,442,796,599,590,1019915
Rivers ,150710,473971,372,415,365,1244,597,627674
Sokoto ,490333,361604,181,184,84,301,331,853018
Taraba ,324906,374743,116,80,35,862,211,700953
Yobe ,497914,50763,137,36,37,180,162,549229
Zamfara ,438682,125423,186,44,24,81,186,564626
FCT ,152224,259997,583,1083,652,410,246,415195
Total ,15191847,11262978,33953,21886,16779,34746,97874,26660123
Source,https://www.bbc.co.uk/news/resources/idt-f0b25208-4a1d-4068-a204-940cbe88d1d3,https://www.vanguardngr.com/2019/02/2019-presidential-election-results-buhari-polled-over15m-votes/,,,,,,
Wikipedia,https://en.wikipedia.org/wiki/2019_Nigerian_general_election,,,,,,,
